result_4bit alu/dump.vcd
$date
	Wed May 13 08:30:27 2026
$end

$version
	Synopsys VCS version X-2025.06-SP1_Full64
$end

$timescale
	1ns
$end

$comment Csum: 1 eae2aaa099843289 $end


$scope module ALU_tb $end
$var reg 16 ! A [15:0] $end
$var reg 16 " B [15:0] $end
$var reg 4 # opcode [3:0] $end
$var reg 1 $ en $end
$var wire 32 % result [31:0] $end

$scope begin unnamed$$_0 $end
$upscope $end


$scope module a1 $end
$var wire 16 ! A [15:0] $end
$var wire 16 " B [15:0] $end
$var wire 1 $ en $end
$var wire 4 # opcode [3:0] $end
$var reg 32 % result [31:0] $end
$upscope $end

$upscope $end

$enddefinitions $end

#0
$dumpvars
1$
b0011010100100100 !
b0101111010000001 "
b00000000000000000110101110100101 %
b1001 #
$end
#5
b0101011001100011 !
b0111101100001101 "
b1101 #
b00000000000000000010101100110001 %
#10
b1000010001100101 !
b0101001000010010 "
b0001 #
b00000000000000000011001001010011 %
#15
b1100110100001101 !
b1111000101110110 "
b1101 #
b00000000000000000110011010000110 %
#20
b0101011111101101 !
b1111011110001100 "
b1001 #
b00000000000000001010000001100001 %
#25
b0010010011000110 !
b1000010011000101 "
b1010 #
b11111111111111111111101100111011 %
#30
b1111011111100101 !
b0111001001110111 "
b0010 #
b01101110110101110011010101110011 %
#35
b1101101110001111 !
b0110100111110010 "
b1110 #
b00000000000000011011011100011110 %
#40
b0111101011101000 !
b0100111011000101 "
b1100 #
b11111111111111111100101111010010 %
#45
b0010100010111101 !
b0101100000101101 "
b0101 #
b00000000000000000010100010111100 %
#50
b0110001001100011 !
b1000011100001010 "
b0000 #
b00000000000000001110100101101101 %
#55
b0010000100100000 !
b0100010110101010 "
b1101 #
b00000000000000000001000010010000 %
#60
b0011111010010110 !
b1011100000010011 "
b00000000000000000001111101001011 %
#65
b1101011001010011 !
b1101110101101011 "
b0101 #
b00000000000000001101011001010010 %
#70
b0100101000000010 !
b0011111010101110 "
b1101 #
b00000000000000000010010100000001 %
#75
b0111001011001111 !
b0100100100100011 "
b1010 #
b11111111111111111011111111111100 %
#80
b0000101011001010 !
b0100110000111100 "
b0010 #
b00000011001101100111111101011000 %
#85
b0110000110001010 !
b1011001101000001 "
b1000 #
b00000000000000001111001111001011 %
#90
b1111001101111000 !
b0001001010001001 "
b1011 #
b11111111111111110000110000000110 %
#95
b0110010110110110 !
b1111100111000110 "
b1110 #
b00000000000000001100101101101100 %
